1 First Last HWA=92.5  QA=97  TA=89  FE=99
2 Begin Final HWA=87.5  QA=85  TA=85  FE=89
3 Early Late HWA=82  QA=82.6667  TA=83.5  FE=79
4 Alpha Omega HWA=97.75  QA=95.6667  TA=97  FE=98
5 One Two HWA=68.25  QA=75.6667  TA=69  FE=75
