1 Last First HW: 90 95 100 85 Q: 95 98 98 T: 90 88 FE: 99
2 Final Begin HW: 80 82 93 95 Q: 75 85 95 T: 83 87 FE: 89
3 Late Early HW: 77 84 78 89 Q: 88 81 79 T: 82 85 FE: 79
4 Omega Alpha HW: 100 94 97 100 Q: 99 91 97 T: 96 98 FE: 98
5 Two One HW: 65 72 70 66 Q: 80 77 70 T: 70 68 FE: 75
